<?xml version="1.0" encoding="UTF-8"?>
<model ref="r:df4bd6bb-2665-447e-8134-504baecea6d4(de.kaialexhiller.canteen.typesystem)">
  <persistence version="9" />
  <languages>
    <use id="7a5dda62-9140-4668-ab76-d5ed1746f2b2" name="jetbrains.mps.lang.typesystem" version="5" />
    <devkit ref="00000000-0000-4000-0000-1de82b3a4936(jetbrains.mps.devkit.aspect.typesystem)" />
  </languages>
  <imports />
  <registry />
</model>

